/* XPM */
static char* No[] = {
"64 64 3 1 30 31",
"  c None",
"! c #101010",
"# c #000000",
"                                                                ",
"                                                                ",
"                          !!!!!!!!!!!                           ",
"                       !!!###########!!!                        ",
"                    !!!#################!!!!                    ",
"                  !!########################!!                  ",
"                !!############################!!                ",
"               !################################!               ",
"              !##################################!              ",
"             !####################################!             ",
"            !######################################!            ",
"           !##############!!!!!!!!!!!###############!           ",
"          !##############!           !!##############!          ",
"         !#############!!              !!!############!         ",
"        !############!!                   !############!        ",
"       !############!                    !##############!       ",
"      !############!                    !###############!       ",
"      !###########!                    !#################!      ",
"     !###########!                    !##################!      ",
"     !##########!                    !####################!     ",
"    !##########!                    !#####################!     ",
"    !##########!                   !#############!!#######!     ",
"    !#########!                   !#############! !########!    ",
"   !#########!                   !#############!   !#######!    ",
"   !#########!                  !#############!    !#######!    ",
"   !########!                  !#############!      !#######!   ",
"  !#########!                 !#############!       !#######!   ",
"  !########!                 !#############!        !#######!   ",
"  !########!                !#############!         !#######!   ",
"  !########!               !#############!          !#######!   ",
"  !########!              !#############!           !#######!   ",
"  !########!             !#############!            !#######!   ",
"  !########!            !#############!             !#######!   ",
"  !########!           !#############!              !#######!   ",
"  !########!          !#############!               !#######!   ",
"  !########!         !#############!                !######!    ",
"   !#######!        !#############!                 !######!    ",
"   !########!      !#############!                 !#######!    ",
"   !########!     !#############!                  !#######!    ",
"   !#########!   !#############!                  !#######!     ",
"    !########!  !#############!                   !#######!     ",
"    !########! !#############!                   !#######!      ",
"     !########!#############!                    !#######!      ",
"     !#####################!                    !########!      ",
"      !###################!                    !########!       ",
"      !##################!                    !#########!       ",
"       !################!                    !#########!        ",
"       !###############!                    !##########!        ",
"        !#############!                    !##########!         ",
"         !###########!                   !!##########!          ",
"         !############!                 !###########!           ",
"          !############!!!           !!!###########!            ",
"           !##############!!!!!!!!!!!#############!             ",
"            !####################################!              ",
"             !!#################################!               ",
"               !##############################!!                ",
"                !!!########################!!!                  ",
"                   !!#####################!                     ",
"                     !!!!##############!!!                      ",
"                         !!!########!!!                         ",
"                            !!!!!!!!                            ",
"                                                                ",
"                                                                ",
"                                                                "};