/* XPM */
static char* Normal[] = {
"48 48 3 1 12 4",
"  c None",
"! c #101010",
"# c #000000",
"                                                ",
"                                                ",
"                                                ",
"                                                ",
"            !                                   ",
"            !!                                  ",
"            !#!                                 ",
"            !##!                                ",
"            !###!                               ",
"            !####!                              ",
"            !#####!                             ",
"            !######!                            ",
"            !#######!                           ",
"            !########!                          ",
"            !#########!                         ",
"            !##########!                        ",
"            !###########!                       ",
"            !############!                      ",
"            !#############!                     ",
"            !##############!                    ",
"            !###############!                   ",
"            !################!                  ",
"            !#################!                 ",
"            !##################!                ",
"            !###################!               ",
"            !####################!              ",
"            !###########!!!!!!!!!!              ",
"            !###########!                       ",
"            !############!                      ",
"            !#####!!#####!                      ",
"            !####! !######!                     ",
"            !###!   !#####!                     ",
"            !##!    !######!                    ",
"            !#!      !#####!                    ",
"            !!       !######!                   ",
"            !         !#####!                   ",
"                      !######!                  ",
"                       !#####!                  ",
"                       !######!                 ",
"                        !#####!                 ",
"                        !#####!                 ",
"                         !!!!!!                 ",
"                                                ",
"                                                ",
"                                                ",
"                                                ",
"                                                ",
"                                                "};