/* XPM */
static char* Help[] = {
"32 32 4 1 3 4",
"  c None",
"! c #101010",
"# c #000000",
"$ c #FFFFFF",
"                                ",
"                                ",
"                                ",
"                                ",
"   !                            ",
"   !!                           ",
"   !#!                          ",
"   !##!                         ",
"   !###!                        ",
"   !####!          $$$$$$$      ",
"   !#####!        $!!!!!!!$     ",
"   !######!      $!!!$$!!!!$    ",
"   !#######!    $!!!$  $!!!!$   ",
"   !########!   $!!!$  $!!!!$   ",
"   !#########!  $!!!$  $!!!!$   ",
"   !##########! $!!!$  $!!!$    ",
"   !###########!$$$$$ $!!!$     ",
"   !############!    $!!!$      ",
"   !########!!!!!!  $!!!$       ",
"   !#######!        $!!!$       ",
"   !###!!###!       $!!!$       ",
"   !##!  !##!        $$$        ",
"   !#!   !###!      $!!!$       ",
"   !!     !##!     $!!!!!$      ",
"   !      !###!     $!!!$       ",
"           !##!      $$$        ",
"           !###!                ",
"            !##!                ",
"             !!!                ",
"                                ",
"                                ",
"                                "};